{
    "swagger": "2.0",
    "info": {
        "description": "API Send mail microservice",
        "title": "Send mail microservice",
        "contact": {},
        "version": "1.0"
    },
    "host": "localhost:8001",
    "basePath": "/",
    "paths": {
        "/api/mails/": {
            "get": {
                "security": [
                    {
                        "ApiKeyAuth": []
                    }
                ],
                "description": "Get all mails for logged user",
                "produces": [
                    "application/json"
                ],
                "tags": [
                    "mails"
                ],
                "summary": "Get all mails",
                "operationId": "Get-all-mail",
                "responses": {
                    "200": {
                        "description": "OK",
                        "schema": {
                            "$ref": "#/definitions/entity.GetAllMailsResponse"
                        }
                    },
                    "400": {
                        "description": "Bad Request",
                        "schema": {
                            "$ref": "#/definitions/handler.errorResponse"
                        }
                    },
                    "404": {
                        "description": "Not Found",
                        "schema": {
                            "$ref": "#/definitions/handler.errorResponse"
                        }
                    },
                    "500": {
                        "description": "Internal Server Error",
                        "schema": {
                            "$ref": "#/definitions/handler.errorResponse"
                        }
                    },
                    "default": {
                        "description": "",
                        "schema": {
                            "$ref": "#/definitions/handler.errorResponse"
                        }
                    }
                }
            }
        },
        "/api/mails/send": {
            "post": {
                "security": [
                    {
                        "ApiKeyAuth": []
                    }
                ],
                "description": "Send mail [Only: content, subject and emails fields is required]",
                "consumes": [
                    "application/json"
                ],
                "produces": [
                    "application/json"
                ],
                "tags": [
                    "mails"
                ],
                "summary": "Send Mail",
                "operationId": "Send-mail",
                "parameters": [
                    {
                        "description": "Send mail data",
                        "name": "input",
                        "in": "body",
                        "required": true,
                        "schema": {
                            "$ref": "#/definitions/entity.Mail"
                        }
                    }
                ],
                "responses": {
                    "200": {
                        "description": "OK",
                        "schema": {
                            "type": "integer"
                        }
                    },
                    "400": {
                        "description": "Bad Request",
                        "schema": {
                            "$ref": "#/definitions/handler.errorResponse"
                        }
                    },
                    "404": {
                        "description": "Not Found",
                        "schema": {
                            "$ref": "#/definitions/handler.errorResponse"
                        }
                    },
                    "500": {
                        "description": "Internal Server Error",
                        "schema": {
                            "$ref": "#/definitions/handler.errorResponse"
                        }
                    },
                    "default": {
                        "description": "",
                        "schema": {
                            "$ref": "#/definitions/handler.errorResponse"
                        }
                    }
                }
            }
        },
        "/api/mails/{id}": {
            "get": {
                "security": [
                    {
                        "ApiKeyAuth": []
                    }
                ],
                "description": "Get all mails for logged user",
                "produces": [
                    "application/json"
                ],
                "tags": [
                    "mails"
                ],
                "summary": "Get mail by ID",
                "operationId": "Get-mail-by-id",
                "parameters": [
                    {
                        "type": "integer",
                        "description": "Mail record ID",
                        "name": "id",
                        "in": "path",
                        "required": true
                    }
                ],
                "responses": {
                    "200": {
                        "description": "OK",
                        "schema": {
                            "$ref": "#/definitions/entity.Mail"
                        }
                    },
                    "400": {
                        "description": "Bad Request",
                        "schema": {
                            "$ref": "#/definitions/handler.errorResponse"
                        }
                    },
                    "404": {
                        "description": "Not Found",
                        "schema": {
                            "$ref": "#/definitions/handler.errorResponse"
                        }
                    },
                    "500": {
                        "description": "Internal Server Error",
                        "schema": {
                            "$ref": "#/definitions/handler.errorResponse"
                        }
                    },
                    "default": {
                        "description": "",
                        "schema": {
                            "$ref": "#/definitions/handler.errorResponse"
                        }
                    }
                }
            }
        },
        "/auth/sign-in": {
            "post": {
                "description": "Login account",
                "consumes": [
                    "application/json"
                ],
                "produces": [
                    "application/json"
                ],
                "tags": [
                    "auth"
                ],
                "summary": "Sign In",
                "operationId": "login-account",
                "parameters": [
                    {
                        "description": "Profie(account) info",
                        "name": "input",
                        "in": "body",
                        "required": true,
                        "schema": {
                            "$ref": "#/definitions/entity.SignInUserInput"
                        }
                    }
                ],
                "responses": {
                    "200": {
                        "description": "token",
                        "schema": {
                            "type": "string"
                        }
                    },
                    "400": {
                        "description": "Bad Request",
                        "schema": {
                            "$ref": "#/definitions/handler.errorResponse"
                        }
                    },
                    "404": {
                        "description": "Not Found",
                        "schema": {
                            "$ref": "#/definitions/handler.errorResponse"
                        }
                    },
                    "500": {
                        "description": "Internal Server Error",
                        "schema": {
                            "$ref": "#/definitions/handler.errorResponse"
                        }
                    },
                    "default": {
                        "description": "",
                        "schema": {
                            "$ref": "#/definitions/handler.errorResponse"
                        }
                    }
                }
            }
        },
        "/auth/sign-up": {
            "post": {
                "description": "Create account",
                "consumes": [
                    "application/json"
                ],
                "produces": [
                    "application/json"
                ],
                "tags": [
                    "auth"
                ],
                "summary": "Sign Up",
                "operationId": "create-account",
                "parameters": [
                    {
                        "description": "Profie(account) info",
                        "name": "input",
                        "in": "body",
                        "required": true,
                        "schema": {
                            "$ref": "#/definitions/entity.User"
                        }
                    }
                ],
                "responses": {
                    "200": {
                        "description": "OK",
                        "schema": {
                            "type": "integer"
                        }
                    },
                    "400": {
                        "description": "Bad Request",
                        "schema": {
                            "$ref": "#/definitions/handler.errorResponse"
                        }
                    },
                    "404": {
                        "description": "Not Found",
                        "schema": {
                            "$ref": "#/definitions/handler.errorResponse"
                        }
                    },
                    "500": {
                        "description": "Internal Server Error",
                        "schema": {
                            "$ref": "#/definitions/handler.errorResponse"
                        }
                    },
                    "default": {
                        "description": "",
                        "schema": {
                            "$ref": "#/definitions/handler.errorResponse"
                        }
                    }
                }
            }
        }
    },
    "definitions": {
        "entity.GetAllMailsResponse": {
            "type": "object",
            "properties": {
                "data": {
                    "type": "array",
                    "items": {
                        "$ref": "#/definitions/entity.Mail"
                    }
                }
            }
        },
        "entity.Mail": {
            "type": "object",
            "required": [
                "content",
                "emails",
                "subject"
            ],
            "properties": {
                "content": {
                    "type": "string"
                },
                "created_at": {
                    "type": "string"
                },
                "emails": {
                    "type": "array",
                    "items": {
                        "type": "string"
                    }
                },
                "id": {
                    "type": "integer"
                },
                "status": {
                    "type": "integer"
                },
                "subject": {
                    "type": "string"
                },
                "user_id": {
                    "type": "integer"
                }
            }
        },
        "entity.SignInUserInput": {
            "type": "object",
            "required": [
                "email",
                "password"
            ],
            "properties": {
                "email": {
                    "type": "string"
                },
                "password": {
                    "type": "string"
                }
            }
        },
        "entity.User": {
            "type": "object",
            "required": [
                "email",
                "name",
                "password",
                "project",
                "surname"
            ],
            "properties": {
                "email": {
                    "type": "string"
                },
                "name": {
                    "type": "string"
                },
                "password": {
                    "type": "string"
                },
                "project": {
                    "type": "string"
                },
                "surname": {
                    "type": "string"
                }
            }
        },
        "handler.errorResponse": {
            "type": "object",
            "properties": {
                "message": {
                    "type": "string"
                }
            }
        }
    },
    "securityDefinitions": {
        "ApiKeyAuth": {
            "type": "apiKey",
            "name": "Authorization",
            "in": "header"
        }
    }
}